{
  "formatVersion": 1,
  "database": {
    "version": 1,
    "identityHash": "cecf45c644762e637bbc2806fdef2e8b",
    "entities": [
      {
        "tableName": "CIRCUIT_TABLE",
        "createSql": "CREATE TABLE IF NOT EXISTS `${TABLE_NAME}` (`id` INTEGER PRIMARY KEY AUTOINCREMENT, `name` TEXT NOT NULL, `brand` TEXT NOT NULL, `price` REAL NOT NULL, `description` TEXT NOT NULL, `manufacter` TEXT NOT NULL, `photo` INTEGER NOT NULL, `category` TEXT NOT NULL)",
        "fields": [
          {
            "fieldPath": "id",
            "columnName": "id",
            "affinity": "INTEGER",
            "notNull": false
          },
          {
            "fieldPath": "name",
            "columnName": "name",
            "affinity": "TEXT",
            "notNull": true
          },
          {
            "fieldPath": "brand",
            "columnName": "brand",
            "affinity": "TEXT",
            "notNull": true
          },
          {
            "fieldPath": "price",
            "columnName": "price",
            "affinity": "REAL",
            "notNull": true
          },
          {
            "fieldPath": "description",
            "columnName": "description",
            "affinity": "TEXT",
            "notNull": true
          },
          {
            "fieldPath": "manufacter",
            "columnName": "manufacter",
            "affinity": "TEXT",
            "notNull": true
          },
          {
            "fieldPath": "photo",
            "columnName": "photo",
            "affinity": "INTEGER",
            "notNull": true
          },
          {
            "fieldPath": "category",
            "columnName": "category",
            "affinity": "TEXT",
            "notNull": true
          }
        ],
        "primaryKey": {
          "columnNames": [
            "id"
          ],
          "autoGenerate": true
        },
        "indices": [],
        "foreignKeys": []
      },
      {
        "tableName": "CAR_TABLE",
        "createSql": "CREATE TABLE IF NOT EXISTS `${TABLE_NAME}` (`id` INTEGER PRIMARY KEY AUTOINCREMENT, `name` TEXT NOT NULL, `brand` TEXT NOT NULL, `price` REAL NOT NULL, `description` TEXT NOT NULL, `manufacter` TEXT NOT NULL, `photo` INTEGER NOT NULL, `category` TEXT NOT NULL)",
        "fields": [
          {
            "fieldPath": "id",
            "columnName": "id",
            "affinity": "INTEGER",
            "notNull": false
          },
          {
            "fieldPath": "name",
            "columnName": "name",
            "affinity": "TEXT",
            "notNull": true
          },
          {
            "fieldPath": "brand",
            "columnName": "brand",
            "affinity": "TEXT",
            "notNull": true
          },
          {
            "fieldPath": "price",
            "columnName": "price",
            "affinity": "REAL",
            "notNull": true
          },
          {
            "fieldPath": "description",
            "columnName": "description",
            "affinity": "TEXT",
            "notNull": true
          },
          {
            "fieldPath": "manufacter",
            "columnName": "manufacter",
            "affinity": "TEXT",
            "notNull": true
          },
          {
            "fieldPath": "photo",
            "columnName": "photo",
            "affinity": "INTEGER",
            "notNull": true
          },
          {
            "fieldPath": "category",
            "columnName": "category",
            "affinity": "TEXT",
            "notNull": true
          }
        ],
        "primaryKey": {
          "columnNames": [
            "id"
          ],
          "autoGenerate": true
        },
        "indices": [],
        "foreignKeys": []
      },
      {
        "tableName": "ACCESORY_TABLE",
        "createSql": "CREATE TABLE IF NOT EXISTS `${TABLE_NAME}` (`id` INTEGER PRIMARY KEY AUTOINCREMENT, `name` TEXT NOT NULL, `brand` TEXT NOT NULL, `price` REAL NOT NULL, `description` TEXT NOT NULL, `manufacter` TEXT NOT NULL, `photo` INTEGER NOT NULL, `category` TEXT NOT NULL)",
        "fields": [
          {
            "fieldPath": "id",
            "columnName": "id",
            "affinity": "INTEGER",
            "notNull": false
          },
          {
            "fieldPath": "name",
            "columnName": "name",
            "affinity": "TEXT",
            "notNull": true
          },
          {
            "fieldPath": "brand",
            "columnName": "brand",
            "affinity": "TEXT",
            "notNull": true
          },
          {
            "fieldPath": "price",
            "columnName": "price",
            "affinity": "REAL",
            "notNull": true
          },
          {
            "fieldPath": "description",
            "columnName": "description",
            "affinity": "TEXT",
            "notNull": true
          },
          {
            "fieldPath": "manufacter",
            "columnName": "manufacter",
            "affinity": "TEXT",
            "notNull": true
          },
          {
            "fieldPath": "photo",
            "columnName": "photo",
            "affinity": "INTEGER",
            "notNull": true
          },
          {
            "fieldPath": "category",
            "columnName": "category",
            "affinity": "TEXT",
            "notNull": true
          }
        ],
        "primaryKey": {
          "columnNames": [
            "id"
          ],
          "autoGenerate": true
        },
        "indices": [],
        "foreignKeys": []
      },
      {
        "tableName": "circuit_to_car_table",
        "createSql": "CREATE TABLE IF NOT EXISTS `${TABLE_NAME}` (`carId` INTEGER NOT NULL, `circuitId` INTEGER NOT NULL, PRIMARY KEY(`carId`, `circuitId`), FOREIGN KEY(`circuitId`) REFERENCES `CIRCUIT_TABLE`(`id`) ON UPDATE NO ACTION ON DELETE CASCADE , FOREIGN KEY(`carId`) REFERENCES `CAR_TABLE`(`id`) ON UPDATE NO ACTION ON DELETE CASCADE )",
        "fields": [
          {
            "fieldPath": "carId",
            "columnName": "carId",
            "affinity": "INTEGER",
            "notNull": true
          },
          {
            "fieldPath": "circuitId",
            "columnName": "circuitId",
            "affinity": "INTEGER",
            "notNull": true
          }
        ],
        "primaryKey": {
          "columnNames": [
            "carId",
            "circuitId"
          ],
          "autoGenerate": false
        },
        "indices": [
          {
            "name": "index_circuit_to_car_table_carId",
            "unique": false,
            "columnNames": [
              "carId"
            ],
            "createSql": "CREATE  INDEX `index_circuit_to_car_table_carId` ON `${TABLE_NAME}` (`carId`)"
          },
          {
            "name": "index_circuit_to_car_table_circuitId",
            "unique": false,
            "columnNames": [
              "circuitId"
            ],
            "createSql": "CREATE  INDEX `index_circuit_to_car_table_circuitId` ON `${TABLE_NAME}` (`circuitId`)"
          }
        ],
        "foreignKeys": [
          {
            "table": "CIRCUIT_TABLE",
            "onDelete": "CASCADE",
            "onUpdate": "NO ACTION",
            "columns": [
              "circuitId"
            ],
            "referencedColumns": [
              "id"
            ]
          },
          {
            "table": "CAR_TABLE",
            "onDelete": "CASCADE",
            "onUpdate": "NO ACTION",
            "columns": [
              "carId"
            ],
            "referencedColumns": [
              "id"
            ]
          }
        ]
      },
      {
        "tableName": "circuit_to_accesory_table",
        "createSql": "CREATE TABLE IF NOT EXISTS `${TABLE_NAME}` (`accesoryId` INTEGER NOT NULL, `circuitId` INTEGER NOT NULL, PRIMARY KEY(`circuitId`, `accesoryId`), FOREIGN KEY(`circuitId`) REFERENCES `CIRCUIT_TABLE`(`id`) ON UPDATE NO ACTION ON DELETE CASCADE , FOREIGN KEY(`accesoryId`) REFERENCES `ACCESORY_TABLE`(`id`) ON UPDATE NO ACTION ON DELETE CASCADE )",
        "fields": [
          {
            "fieldPath": "accesoryId",
            "columnName": "accesoryId",
            "affinity": "INTEGER",
            "notNull": true
          },
          {
            "fieldPath": "circuitId",
            "columnName": "circuitId",
            "affinity": "INTEGER",
            "notNull": true
          }
        ],
        "primaryKey": {
          "columnNames": [
            "circuitId",
            "accesoryId"
          ],
          "autoGenerate": false
        },
        "indices": [
          {
            "name": "index_circuit_to_accesory_table_accesoryId",
            "unique": false,
            "columnNames": [
              "accesoryId"
            ],
            "createSql": "CREATE  INDEX `index_circuit_to_accesory_table_accesoryId` ON `${TABLE_NAME}` (`accesoryId`)"
          },
          {
            "name": "index_circuit_to_accesory_table_circuitId",
            "unique": false,
            "columnNames": [
              "circuitId"
            ],
            "createSql": "CREATE  INDEX `index_circuit_to_accesory_table_circuitId` ON `${TABLE_NAME}` (`circuitId`)"
          }
        ],
        "foreignKeys": [
          {
            "table": "CIRCUIT_TABLE",
            "onDelete": "CASCADE",
            "onUpdate": "NO ACTION",
            "columns": [
              "circuitId"
            ],
            "referencedColumns": [
              "id"
            ]
          },
          {
            "table": "ACCESORY_TABLE",
            "onDelete": "CASCADE",
            "onUpdate": "NO ACTION",
            "columns": [
              "accesoryId"
            ],
            "referencedColumns": [
              "id"
            ]
          }
        ]
      }
    ],
    "setupQueries": [
      "CREATE TABLE IF NOT EXISTS room_master_table (id INTEGER PRIMARY KEY,identity_hash TEXT)",
      "INSERT OR REPLACE INTO room_master_table (id,identity_hash) VALUES(42, \"cecf45c644762e637bbc2806fdef2e8b\")"
    ]
  }
}